{"name":"getUsers","id":"SerenityInitalTests:getUsers","testCaseName":"SerenityInitalTests","testSteps":[{"number":1,"description":"Diego the user get users","duration":2508,"startTime":"2021-07-14T14:06:12.046-05:00[America/Bogota]","result":"SUCCESS","precondition":false,"level":0,"children":[{"number":2,"description":"Diego the user executes a GET on the resource /users?page\u003d1","duration":2417,"startTime":"2021-07-14T14:06:12.134-05:00[America/Bogota]","result":"SUCCESS","precondition":false,"level":1,"children":[{"number":3,"description":"GET https://reqres.in/api/users?page\u003d1","duration":1,"startTime":"2021-07-14T14:06:14.547-05:00[America/Bogota]","result":"SUCCESS","restQuery":{"method":"GET","path":"https://reqres.in/api/users?page\u003d1","content":"","contentType":"application/json","requestHeaders":"header1\u003dvalue1\n\t\t\t\tAccept\u003d*/*\n\t\t\t\tContent-Type\u003dapplication/json; charset\u003dUTF-8","requestCookies":"","responseHeaders":"Date: Wed, 14 Jul 2021 19:06:14 GMT\nContent-Type: application/json; charset\u003dutf-8\nTransfer-Encoding: chunked\nConnection: keep-alive\nX-Powered-By: Express\nAccess-Control-Allow-Origin: *\nEtag: W/\"3e4-2RLXvr5wTg9YQ6aH95CkYoFNuO8\"\nVia: 1.1 vegur\nCache-Control: max-age\u003d14400\nCF-Cache-Status: HIT\nAge: 247\nExpect-CT: max-age\u003d604800, report-uri\u003d\"https://report-uri.cloudflare.com/cdn-cgi/beacon/expect-ct\"\nReport-To: {\"endpoints\":[{\"url\":\"https:\\/\\/a.nel.cloudflare.com\\/report\\/v3?s\u003dJXmnxhcEqvgp1u3%2BjftYljcmd3hPL5vZhpuJgkM%2BtfWjdYRuHyOVV9sF%2FR8Teidomml%2Fb%2Bwf9IEeybE85xQtWSTVE5t0k1MZcMUlWoa8Phljx0I4flTF8bHTiAE%3D\"}],\"group\":\"cf-nel\",\"max_age\":604800}\nNEL: {\"report_to\":\"cf-nel\",\"max_age\":604800}\nVary: Accept-Encoding\nServer: cloudflare\nCF-RAY: 66ed06ef8d09e3b6-ATL\nContent-Encoding: gzip\nalt-svc: h3-27\u003d\":443\"; ma\u003d86400, h3-28\u003d\":443\"; ma\u003d86400, h3-29\u003d\":443\"; ma\u003d86400, h3\u003d\":443\"; ma\u003d86400","responseCookies":"","responseBody":"{\n    \"page\": 1,\n    \"per_page\": 6,\n    \"total\": 12,\n    \"total_pages\": 2,\n    \"data\": [\n        {\n            \"id\": 1,\n            \"email\": \"george.bluth@reqres.in\",\n            \"first_name\": \"George\",\n            \"last_name\": \"Bluth\",\n            \"avatar\": \"https://reqres.in/img/faces/1-image.jpg\"\n        },\n        {\n            \"id\": 2,\n            \"email\": \"janet.weaver@reqres.in\",\n            \"first_name\": \"Janet\",\n            \"last_name\": \"Weaver\",\n            \"avatar\": \"https://reqres.in/img/faces/2-image.jpg\"\n        },\n        {\n            \"id\": 3,\n            \"email\": \"emma.wong@reqres.in\",\n            \"first_name\": \"Emma\",\n            \"last_name\": \"Wong\",\n            \"avatar\": \"https://reqres.in/img/faces/3-image.jpg\"\n        },\n        {\n            \"id\": 4,\n            \"email\": \"eve.holt@reqres.in\",\n            \"first_name\": \"Eve\",\n            \"last_name\": \"Holt\",\n            \"avatar\": \"https://reqres.in/img/faces/4-image.jpg\"\n        },\n        {\n            \"id\": 5,\n            \"email\": \"charles.morris@reqres.in\",\n            \"first_name\": \"Charles\",\n            \"last_name\": \"Morris\",\n            \"avatar\": \"https://reqres.in/img/faces/5-image.jpg\"\n        },\n        {\n            \"id\": 6,\n            \"email\": \"tracey.ramos@reqres.in\",\n            \"first_name\": \"Tracey\",\n            \"last_name\": \"Ramos\",\n            \"avatar\": \"https://reqres.in/img/faces/6-image.jpg\"\n        }\n    ],\n    \"support\": {\n        \"url\": \"https://reqres.in/#support-heading\",\n        \"text\": \"To keep ReqRes free, contributions towards server costs are appreciated!\"\n    }\n}","statusCode":200},"precondition":false,"level":2}]}]},{"number":4,"description":"Then The response code should be (200)","duration":23,"startTime":"2021-07-14T14:06:14.635-05:00[America/Bogota]","result":"SUCCESS","precondition":false,"level":0},{"number":5,"description":"Then User is not null should be not null","duration":0,"startTime":"2021-07-14T14:06:14.704-05:00[America/Bogota]","result":"SUCCESS","precondition":false,"level":0},{"number":6,"description":"Then User email should be \u0027george.bluth@reqres.in\u0027","duration":0,"startTime":"2021-07-14T14:06:14.707-05:00[America/Bogota]","result":"SUCCESS","precondition":false,"level":0},{"number":7,"description":"Then User avatar should be \u0027https://reqres.in/img/faces/1-image.jpg\u0027","duration":1,"startTime":"2021-07-14T14:06:14.708-05:00[America/Bogota]","result":"SUCCESS","precondition":false,"level":0}],"userStory":{"id":"SerenityInitalTests","storyName":"Serenity inital tests","storyClassName":"SerenityInitalTests","path":"","type":"story"},"featureTag":{"name":"Serenity inital tests","type":"story","displayName":"Serenity inital tests"},"title":"Get users","tags":[{"name":"Serenity inital tests","type":"story","displayName":"Serenity inital tests"}],"startTime":"2021-07-14T14:06:11.802-05:00[America/Bogota]","duration":2908,"projectKey":"","isManualTestingUpToDate":false,"manual":false,"testSource":"JUnit","actors":[{"name":"Diego the user","can":["call an API at https://reqres.in/api"]}],"order":0,"result":"SUCCESS"}